{
  "label": "Deadlands - Armures",
  "mapping": {
    "description": "system.description",
    "skill": {
      "path": "system.actions.skill",
      "converter": "gear_skill"
    },
    "range": {
      "path": "system.range",
      "converter": "gear_range"
    },
    "ammo": {
      "path": "system.ammo",
      "converter": "gear_ammo"
    }
  },
  "entries": {
		"Armored duster (heavy)": {
			"name": "Cache poussière blindé (lourd)",
			"description": "<div class=\"deadlands-core\">\n<p><strong>Protection balistique :</strong> Cet objet réduit de 2 les dégâts infligés par les balles (la Protection balistique utilisée durant cette période est égale à 2, et non 4 comme pour les équipements plus modernes décrits en exemples dans Savage Worlds). Applique les valeurs de @Compendium[swade-core-rules.swade-rules.Armor Piercing (AP)]{Pénétration d’armure} après avoir réduit de 2 aux dégâts infligés par la balle. Tous ces dispositifs sont conçus avec de l’acier fantôme, et donc sujets aux @Compendium[deadlands-core-rules.deadlands-rules.09 Infernal Devices]{Dysfonctionnements}, comme tu pouvais t’en douter.</p>\n</div>"
		},
		"Armored duster (light)": {
			"name": "Cache poussière blindé (léger)",
			"description": "<div class=\"deadlands-core\">\n<p><strong>Protection balistique :</strong> Cet objet réduit de 2 les dégâts infligés par les balles (la Protection balistique utilisée durant cette période est égale à 2, et non 4 comme pour les équipements plus modernes décrits en exemples dans Savage Worlds). Applique les valeurs de @Compendium[swade-core-rules.swade-rules.Armor Piercing (AP)]{Pénétration d’armure} après avoir réduit de 2 aux dégâts infligés par la balle. Tous ces dispositifs sont conçus avec de l’acier fantôme, et donc sujets aux @Compendium[deadlands-core-rules.deadlands-rules.09 Infernal Devices]{Dysfonctionnements}, comme tu pouvais t’en douter.</p>\n</div>"
		},
		"Armored hat (heavy)": {
			"name": "Chapeau blindé (lourd)"
		},
		"Armored hat (light)": {
			"name": "Chapeau blindé (léger)"
		},
		"Armored vest/corset (heavy)": {
			"name": "Veste corset blindé (lourd)",
			"description": "<div class=\"deadlands-core\">\n<p><strong>Protection balistique :</strong> Cet objet réduit de 2 les dégâts infligés par les balles (la Protection balistique utilisée durant cette période est égale à 2, et non 4 comme pour les équipements plus modernes décrits en exemples dans Savage Worlds). Applique les valeurs de @Compendium[swade-core-rules.swade-rules.Armor Piercing (AP)]{Pénétration d’armure} après avoir réduit de 2 aux dégâts infligés par la balle. Tous ces dispositifs sont conçus avec de l’acier fantôme, et donc sujets aux @Compendium[deadlands-core-rules.deadlands-rules.09 Infernal Devices]{Dysfonctionnements}, comme tu pouvais t’en douter.</p>\n</div>"
		},
		"Armored vest/corset (light)": {
			"name": "Veste corset blindé (léger)",
			"description": "<div class=\"deadlands-core\">\n<p><strong>Protection balistique :</strong> Cet objet réduit de 2 les dégâts infligés par les balles (la Protection balistique utilisée durant cette période est égale à 2, et non 4 comme pour les équipements plus modernes décrits en exemples dans Savage Worlds). Applique les valeurs de @Compendium[swade-core-rules.swade-rules.Armor Piercing (AP)]{Pénétration d’armure} après avoir réduit de 2 aux dégâts infligés par la balle. Tous ces dispositifs sont conçus avec de l’acier fantôme, et donc sujets aux @Compendium[deadlands-core-rules.deadlands-rules.09 Infernal Devices]{Dysfonctionnements}, comme tu pouvais t’en douter.</p>\n</div>"
		},
		"Bulletproof Bible": {
			"name": "Bible pare-balles",
			"description": "<div class=\"deadlands-core\">\n<h2>Bible pare-balles</h2>\n<p>Tout le monde a entendu parler du prêcheur itinérant sauvé d’une mort prématurée par la bible glissée dans sa poche de chemise. Ça se passait à Amarillo. Ou Saint-Joseph. Ou Oshkosh. Enfin, peu importe. Tout ce que tu dois savoir, c’est que son sermon ne plaisait pas trop aux citoyens du coin. Son Notre Père n’avait ému personne. La vision de Saint-Melvin ne faisait atterrir aucune obole dans son chapeau. Bref, se tirer d’ici avant que la foule devienne hostile tenait du miracle.</ p>\n<img class=\"float-left\" style=\"shape-outside: url('modules/deadlands-core-rules/assets/art/bible.webp');\" src=\"modules/deadlands-core-rules/assets/art/bible.webp\" alt=\"An empty leather gun belt.\" width=\"512\" /> Et comme tu t’en doutes, ça a tourné vinaigre. Les esprits se sont échauffés, les pétoires se sont mises à fumer. Avant que notre prêcheur ait pu se jeter à couvert, il s’était fait  descendre et il est tombé. Mais la seule douleur qu’il a ressentie, c’est quand sa tête a heurté le sol. Sa bible avait stoppé la balle net. Alors même si les anges ont pas chanté, le message était assez clair. Il s’est relevé, s’est excusé auprès de ces ouailles chatouilleuses et a pris la tangente sans laisser à quiconque le temps réagir. N’importe quel livre saint peut devenir pare-balles, y compris une torah ou un coran, mais étant donné le nombre de pasteurs à l’Ouest, la plupart d’entre eux sont du genre chrétien. Au-delà de son effet peu ordinaire sur les armes, chaque modèle est unique. Certains sont de grosses liasses de pamphlets tachés par la pluie et abîmés par le feu, d’autres des héritages de famille, d’autres encore des cadeaux de fin d’études dorés sur tranche et dégoulinants d’amour parental.</p>\n<p><strong>Pouvoir:</strong> la foi représente un véritable bouclier contre la méchanceté et le désir. Et contre les balles aussi quand on en vient aux mains. Son porteur bénéficie de +4 en Résistance contre les attaques au torse.</p>\n<p><strong>Souillure:</strong> pas une vraie Souillure, mais ces bouquins ont une sale manie. Quand tu vas te coucher, ils apparaissent de temps en temps sur l’oreiller ou la table de nuit, ouverts sur un passage relatif aux événements de la journée ou à ce qui t’attend.</p>\n</div>"
		},
		"Chaps": {
			"name": "Jambières de cuir",
			"description": "<div class=\"deadlands-core\">\n<p> pantalon de cuir épais sans fondement servant à protéger le pantalon et les jambes du cavalier. Il confère un bonus de +1 à l’Armure (jambes) et aux jets d’@Compendium[swade-core-rules.swade-skills.Riding]{Équitation} contre la @UUID[Compendium.swade-core-rules.swade-rules.swadecor03rules0.JournalEntryPage.03fatigue0000000]{Fatigue}.</p>\n</div>"
		},
		"Inventor’s apron": {
			"name": "Tablier de l'inventeur",
			"description": "<div class=\"deadlands-core\">\n<p>le « tablier du diable » protège le devant du torse et les cuisses, et réduit de 4 les dégâts infligés par le @UUID[Compendium.swade-core-rules.swade-rules.swadecor04theadv.JournalEntryPage.04heat0000000000]{feu} ou les attaques basées sur la chaleur et dirigés sur la zone en question, y compris s’ils proviennent de la plupart des @Compendium[deadlands-core-rules.deadlands-rules.09 Infernal Devices]{machines infernales} alimentées.</p>\n</div>"
		},
		"Native armor": {
			"name": "Armure amérindienne",
			"description": "<div class=\"deadlands-core\">\n<p>Armure +1, For min d4. Inclut une chemise en cuir de daim, un pantalon de cuir souple, un pectoral en bois, etc.</p>\n</div>"
		},
		"Native Shield (Medium)": {
			"name": "Bouclier amérindien (moyen)",
			"description": "<div class=\"deadlands-core\">\n<p>bouclier moyen en peau, Parade +2, Couvert –2, Force min. d4, Solidité 8.</p>\n</div>"
		},
		"Native Shield (Small)": {
			"name": "Bouclier amérindien (petit)",
			"description": "<div class=\"deadlands-core\">\n<p>Petit bouclier en peau, Parade +1, Couvert –1, Force min. d4, Solidité 7.</p>\n</div>"
		},
		"The Blue Jacket": {
			"name": "La Veste Bleue",
			"description": "<div class=\"deadlands-core\">\n<h2>La Veste Bleue</h2>\n<p>Une vieille histoire circule parmi les colons de l’Ohio à propos d’un féroce chef indien. Avant de devenir ce brave, Blue Jacket était un petit garçon hollandais répondant au nom de Marmaduke van Swearingen. Vrai ou pas, il a pris la tête des tribus shawnees rangées du côté des Britanniques pendant la guerre d’Indépendance. Après la défaite des Rouges, il a commandé une alliance de tribus indiennes au cours d’une victoire écrasante face aux premiers Américains à la bataille de Wabash. C’est dans cet affrontement qu’il a combattu son propre frère de sang et qu’il a prononcé cette phrase désormais célèbre, « Je n’ai aucun frère blanc ! ». Puis il l’a trucidé sur-le-champ.</p>\n<p><strong>Pouvoir:</strong>  cet objet existe toujours et se trouve actuellement en possession des Chiens soldats de la Confédération du Coyote. Bonne chance pour le récupérer. Son porteur bénéficie de +4 en Résistance.</p>\n<p><strong>Souillure:</strong> celui qui revêt la veste et ceux qu’il commande ou influence (les autres personnages, un groupe, une expédition guerrière, etc.) gagnent le Compendium[swade-core-rules.swade-hindrances.Vengeful]{Handicap Rancunier} (Mineur)</p>\n</div>"
		}
	}}