{
	"label": "SWADE Armes spéciales",
  "mapping": {
    "description": "system.description",
    "skill": {
      "path": "system.actions.skill",
      "converter": "gear_skill"
    },
    "range": {
      "path": "system.range",
      "converter": "gear_range"
    },
    "ammo": {
      "path": "system.ammo",
      "converter": "gear_ammo"
    }
  },
	"entries": {
		"AT-4": {
			"name": "AT-4",
			"description": "<div class=\"swade-core\">\n<p>Une arme antichar américaine de l’ère contemporaine. @Compendium[swade-core-rules.swade-rules.Area Effect Attacks]{Gabarit moyen}.</p>\n<hr />\n<p>Les roquettes et les torpilles sont des armes à tir direct qui explosent en touchant leur cible. @Compendium[swade-core-rules.swade-rules.Heavy Weapon (HW)]{Arme lourde}.</p>\n</div>"
		},
		"Bazooka": {
			"name": "Bazooka",
			"description": "<div class=\"swade-core\">\n<p>@Compendium[swade-core-rules.swade-rules.Snapfire]{Tir statique}. L’arme antichar standard des troupes américaines lors de la seconde guerre mondiale. Chaque roquette supplémentaire pèse 4,5 kg et coûte 50 $ de l’époque. @Compendium[swade-core-rules.swade-rules.Area Effect Attacks]{Gabarit moyen}.</p>\n<hr />\n<p>Les roquettes et les torpilles sont des armes à tir direct qui explosent en touchant leur cible. @Compendium[swade-core-rules.swade-rules.Heavy Weapon (HW)]{Arme lourde}.</p>\n</div>"
		},
		"Bombs": {
			"name": "Bombes",
			"description": "<div class=\"swade-core\"><blockquote>\n<p>Bomb Damage: All of it.</p>\n<p>A Bomb is just an @Compendium[swade-core-rules.swade-skills.Intimidation]{Intimidation} @Compendium[swade-core-rules.swade-rules.Test]{Test} against everyone <em>not</em> in the affected area.</p>\n<p><cite>- Clint Black</cite></p>\n</blockquote></div>"
		},
		"Bouncing Betty": {
			"name": "Bouncing Betty",
			"description": "<div class=\"swade-core\">\n<p>: Ces mines, aussi appelées mines bondissantes à fragmentation, sont propulsées et explosent à hauteur du visage une fois activées. Seules les protections intégrales à la tête sont efficaces contre ces armes. Être couché à terre n’offre  pas non plus une protection efficace. @Compendium[swade-core-rules.swade-rules.Area Effect Attacks]{Gabarit petit}.</p>\n<hr />\n<p>Les mines sont des explosifs dissimulés dans le sol, qui explosent dans le Gabarit indiqué lorsqu’une personne (pour les  mines antipersonnel), ou un véhicule (pour les mines antichar), passe dessus.</p>\n<p><strong>Champ de mines:</strong>  à des fins dramatiques, un personnage qui marche sur une mine a droit à un jet de Perception. En cas de Succès, il réalise le danger avant d’enlever son pied et de faire exploser l’engin. Sauver la victime nécessite un jet de Réparation à -4, mais un Échec déclenche l’explosion immédiatement.</p>\n</div>"
		},
		"Cannon (12 lb), Canister": {
			"name": "Canon (12 livres), Canister",
			"description": "<div class=\"swade-core\">\n<p>Les canons sont utilisés pour détruire des murailles ou briser des formations adverses. C’est le chef d’équipe des artilleurs qui fait le jet de @Compendium[swade-core-rules.swade-skills.Shooting]{Tir}.</p>\n<p><strong>Bombardement:</strong>  obusiers, mortiers et bombardes peuvent atteindre des cibles non visibles en ayant une vague  idée de leur emplacement, mais le jet de Tir subit un malus de -4 et la dispersion est doublée (voir @Compendium[swade-core-rules.swade-rules.Area Effect Attacks]{Attaque de zone} p. 98). Réduisez ce malus à 2 en cas de coordonnées précises (grâce à un observateur direct par exemple). Les canons peuvent tirer trois types de projectiles différents : boulets, shrapnels et canisters (boîtes à mitraille). Il est possible de changer de type de munition entre chaque tir.</p>\n<p><strong>Canister:</strong> ces boites à mitraille sont des obus explosant à  l’intérieur même du canon. Les morceaux de métal déchiquetés sont alors expulsés, semant la mort dans une gerbe à la manière d’un fusil à pompe géant. Cette attaque utilise un @Compendium[swade-core-rules.swade-rules.Area Effect Attacks]{Gabarit moyen} qui se déplace depuis le canon jusqu’à 24 cases en ligne droite (sans figurine, elle affecte [[/r d6]] cibles, [[/r 2d6]] si elles sont resserrées). Comparez ensuite le jet de Tir avec la Difficulté habituelle de 4, ajustez individuellement en fonction du Couvert, des capacités spéciales comme l’Atout Esquive ou le pouvoir déflexion, etc. Un Succès inflige [[/r 2d6]] de dégâts et une Prouesse 3d6.</p>\n<p><strong>Note:</strong> tous les projectiles sont des @Compendium[swade-core-rules.swade-rules.Heavy Weapon (HW)]{Armes lourdes} et ont @Compendium[swade-core-rules.swade-rules.Reload]{Rechargement} 8. Deux artilleurs peuvent recharger en même temps.</p>\n</div>"
		},
		"Cannon (12 lb), Shrapnel": {
			"name": "Cannon (12 livres), Shrapnel",
			"description": "<div class=\"swade-core\">\n<p>Les canons sont utilisés pour détruire des murailles ou briser des formations adverses. C’est le chef d’équipe des artilleurs qui fait le jet de @Compendium[swade-core-rules.swade-skills.Shooting]{Tir}.</p>\n<p><strong>Bombardement:</strong>  obusiers, mortiers et bombardes peuvent atteindre des cibles non visibles en ayant une vague  idée de leur emplacement, mais le jet de Tir subit un malus de -4 et la dispersion est doublée (voir @Compendium[swade-core-rules.swade-rules.Area Effect Attacks]{Attaque de zone} p. 98). Réduisez ce malus à 2 en cas de coordonnées précises (grâce à un observateur direct par exemple). Les canons peuvent tirer trois types de projectiles différents : boulets, shrapnels et canisters (boîtes à mitraille). Il est possible de changer de type de munition entre chaque tir.</p>\n<p><strong>Shrapnel:</strong>  ces obus explosifs sont remplis de petites billes de métal et explosent à l’impact en une pluie de débris. Le shrapnel est une @Compendium[swade-core-rules.swade-rules.Area Effect Attacks]{Attaque de zone} qui utilise un @Compendium[swade-core-rules.swade-rules.Area Effect Attacks]{Gabarit moyen} sauf mention contraire.</p>\n<p><strong>Note:</strong> tous les projectiles sont des @Compendium[swade-core-rules.swade-rules.Heavy Weapon (HW)]{Armes lourdes} et ont @Compendium[swade-core-rules.swade-rules.Reload]{Rechargement} 8. Deux artilleurs peuvent recharger en même temps.</p>\n</div>"
		},
		"Cannon (12 lb), Solid Shot": {
			"name": "Cannon (12 livres), Boulet",
			"description": "<div class=\"swade-core\">\n<p>Les canons sont utilisés pour détruire des murailles ou briser des formations adverses. C’est le chef d’équipe des artilleurs qui fait le jet de @Compendium[swade-core-rules.swade-skills.Shooting]{Tir}.</p>\n<p><strong>Bombardement:</strong>  obusiers, mortiers et bombardes peuvent atteindre des cibles non visibles en ayant une vague  idée de leur emplacement, mais le jet de Tir subit un malus de -4 et la dispersion est doublée (voir @Compendium[swade-core-rules.swade-rules.Area Effect Attacks]{Attaque de zone} p. 98). Réduisez ce malus à 2 en cas de coordonnées précises (grâce à un observateur direct par exemple). Les canons peuvent tirer trois types de projectiles différents : boulets, shrapnels et canisters (boîtes à mitraille). Il est possible de changer de type de munition entre chaque tir.</p>\n<p><strong>Boulet:</strong> ils sont utilisés pour défoncer les murs ou pour décimer les troupes resserrées. Le chef des artilleurs fait un jet de @Compendium[swade-core-rules.swade-skills.Shooting]{Tir}. En cas de Succès, lancez un dé. Sur un résultat pair, le boulet touche une cible se trouvant jusqu’à 6 cases derrière la première. Répétez ensuite le processus jusqu’à l’obtention d’un dé impair. </p>\n<p><strong>Note:</strong> tous les projectiles sont des @Compendium[swade-core-rules.swade-rules.Heavy Weapon (HW)]{Armes lourdes} et ont @Compendium[swade-core-rules.swade-rules.Reload]{Rechargement} 8. Deux artilleurs peuvent recharger en même temps.</p>\n</div>"
		},
		"2 pd AT Gun (HE Rounds)": {
			"name": "Canon antichar 2 pd (HE Rounds)",
			"description": "<div class='swade-core'><p><strong>Canons et canons antichar:</strong> ces armes peuvent tirer des @Compendium [swade-core-rules.swade-rules.Armor Piercing (AP)]{munitions perforantes} (PA) ou @Compendium[swade-core-rules.swade-rules.High Explosive (HE)]{hautement explosives (HE)}. Les munitions PA font un dé de dégâts en plus jusqu’à la moitié de leur Portée Courte (4d10 + 2 devient 5d10 + 2 par exemple). </p>\n<p>@Compendium[swade-core-rules.swade-rules.Heavy Weapon (HW)]{Arme lourde}</p></div>"
		},
		"2 pd AT Gun (AP Rounds)": {
			"name": "Canon antichar 2 pd (PA Rounds)",
			"description": "<div class='swade-core'><p><strong>Canons et canons antichar:</strong> ces armes peuvent tirer des @Compendium [swade-core-rules.swade-rules.Armor Piercing (AP)]{munitions perforantes} (PA) ou @Compendium[swade-core-rules.swade-rules.High Explosive (HE)]{hautement explosives (HE)}. Les munitions PA font un dé de dégâts en plus jusqu’à la moitié de leur Portée Courte (4d10 + 2 devient 5d10 + 2 par exemple). </p>\n<p>@Compendium[swade-core-rules.swade-rules.Heavy Weapon (HW)]{Arme lourde}</p></div>"
		},
		"37mm AT Gun (HE Rounds)": {
			"name": "Canon antichar de 37mm (HE Rounds)",
			"description": "<div class='swade-core'><p><strong>Canons et canons antichar:</strong> ces armes peuvent tirer des @Compendium [swade-core-rules.swade-rules.Armor Piercing (AP)]{munitions perforantes} (PA) ou @Compendium[swade-core-rules.swade-rules.High Explosive (HE)]{hautement explosives (HE)}. Les munitions PA font un dé de dégâts en plus jusqu’à la moitié de leur Portée Courte (4d10 + 2 devient 5d10 + 2 par exemple). </p>\n<p>@Compendium[swade-core-rules.swade-rules.Heavy Weapon (HW)]{Arme lourde}</p></div>"
		},
		"37mm AT Gun (AP Rounds)": {
			"name": "Canon antichar de 37mm (PA Rounds)",
			"description": "<div class='swade-core'><p><strong>Canons et canons antichar:</strong> ces armes peuvent tirer des @Compendium [swade-core-rules.swade-rules.Armor Piercing (AP)]{munitions perforantes} (PA) ou @Compendium[swade-core-rules.swade-rules.High Explosive (HE)]{hautement explosives (HE)}. Les munitions PA font un dé de dégâts en plus jusqu’à la moitié de leur Portée Courte (4d10 + 2 devient 5d10 + 2 par exemple). </p>\n<p>@Compendium[swade-core-rules.swade-rules.Heavy Weapon (HW)]{Arme lourde}</p></div>"
		},
		"57mm AT Gun (HE Rounds)": {
			"name": "Canon antichar de 57mm (HE Rounds)",
			"description": "<div class='swade-core'><p><strong>Canons et canons antichar:</strong> ces armes peuvent tirer des @Compendium [swade-core-rules.swade-rules.Armor Piercing (AP)]{munitions perforantes} (PA) ou @Compendium[swade-core-rules.swade-rules.High Explosive (HE)]{hautement explosives (HE)}. Les munitions PA font un dé de dégâts en plus jusqu’à la moitié de leur Portée Courte (4d10 + 2 devient 5d10 + 2 par exemple). </p>\n<p>@Compendium[swade-core-rules.swade-rules.Heavy Weapon (HW)]{Arme lourde}</p></div>"
		},
		"57mm AT Gun (AP Rounds)": {
			"name": "Canon antichar de 57mm (PA Rounds)",
			"description": "<div class='swade-core'><p><strong>Canons et canons antichar:</strong> ces armes peuvent tirer des @Compendium [swade-core-rules.swade-rules.Armor Piercing (AP)]{munitions perforantes} (PA) ou @Compendium[swade-core-rules.swade-rules.High Explosive (HE)]{hautement explosives (HE)}. Les munitions PA font un dé de dégâts en plus jusqu’à la moitié de leur Portée Courte (4d10 + 2 devient 5d10 + 2 par exemple). </p>\n<p>@Compendium[swade-core-rules.swade-rules.Heavy Weapon (HW)]{Arme lourde}</p></div>"
		},
		"20mm Cannon": {
			"name": "Canon de 20mm",
			"description": "<div class=\"swade-core\">\n<p><strong>Cadence de tir minimum</strong> : les armes de véhicules ayant une @Compendium[swade-core-rules.swade-rules.Rate of Fire]{CdT} de 3 ou plus ont une CdT minimum de 2.</p>\n<p>@Compendium[swade-core-rules.swade-rules.Heavy Weapon (HW)]{Armes Lourdes}</p>\n</div>"
		},
		"25mm Cannon": {
			"name": "Canon de 25mm",
			"description": "<div class=\"swade-core\">\n<p><strong>Cadence de tir minimum</strong> : les armes de véhicules ayant une @Compendium[swade-core-rules.swade-rules.Rate of Fire]{CdT} de 3 ou plus ont une CdT minimum de 2.</p>\n<p>@Compendium[swade-core-rules.swade-rules.Heavy Weapon (HW)]{Armes Lourdes}</p>\n</div>"
		},
		"30mm Cannon": {
			"name": "Canon de 30mm",
			"description": "<div class=\"swade-core\">\n<p><strong>Cadence de tir minimum</strong> : les armes de véhicules ayant une @Compendium[swade-core-rules.swade-rules.Rate of Fire]{CdT} de 3 ou plus ont une CdT minimum de 2.</p>\n<p>@Compendium[swade-core-rules.swade-rules.Heavy Weapon (HW)]{Armes Lourdes}</p>\n</div>"
		},
		"40mm Cannon (HE Rounds)": {
			"name": "Canon de 40mm (HE Rounds)",
			"description": "<div class=\"swade-core\">\n<p><strong>Cadence de tir minimum</strong> : les armes de véhicules ayant une @Compendium[swade-core-rules.swade-rules.Rate of Fire]{CdT} de 3 ou plus ont une CdT minimum de 2.</p>\n<p>@Compendium[swade-core-rules.swade-rules.Heavy Weapon (HW)]{Armes Lourdes}</p>\n</div><div class='swade-core'><p><strong>Canons et canons antichar:</strong> ces armes peuvent tirer des @Compendium [swade-core-rules.swade-rules.Armor Piercing (AP)]{munitions perforantes} (PA) ou @Compendium[swade-core-rules.swade-rules.High Explosive (HE)]{hautement explosives (HE)}. Les munitions PA font un dé de dégâts en plus jusqu’à la moitié de leur Portée Courte (4d10 + 2 devient 5d10 + 2 par exemple). </p>\n<p>@Compendium[swade-core-rules.swade-rules.Heavy Weapon (HW)]{Arme lourde}</p></div>"
		},
		"40mm Cannon (AP Rounds)": {
			"name": "Canon de 40mm (PA Rounds)",
			"description": "<div class=\"swade-core\">\n<p><strong>Cadence de tir minimum</strong> : les armes de véhicules ayant une @Compendium[swade-core-rules.swade-rules.Rate of Fire]{CdT} de 3 ou plus ont une CdT minimum de 2.</p>\n<p>@Compendium[swade-core-rules.swade-rules.Heavy Weapon (HW)]{Armes Lourdes}</p>\n</div><div class='swade-core'><p><strong>Canons et canons antichar:</strong> ces armes peuvent tirer des @Compendium [swade-core-rules.swade-rules.Armor Piercing (AP)]{munitions perforantes} (PA) ou @Compendium[swade-core-rules.swade-rules.High Explosive (HE)]{hautement explosives (HE)}. Les munitions PA font un dé de dégâts en plus jusqu’à la moitié de leur Portée Courte (4d10 + 2 devient 5d10 + 2 par exemple). </p>\n<p>@Compendium[swade-core-rules.swade-rules.Heavy Weapon (HW)]{Arme lourde}</p></div>"
		},
		"120mm Tank Gun (HE Rounds)": {
			"name": "Canon de tank de 120mm (HE Rounds)",
			"description": "<div class='swade-core'><p><strong>Canons et canons antichar:</strong> ces armes peuvent tirer des @Compendium [swade-core-rules.swade-rules.Armor Piercing (AP)]{munitions perforantes} (PA) ou @Compendium[swade-core-rules.swade-rules.High Explosive (HE)]{hautement explosives (HE)}. Les munitions PA font un dé de dégâts en plus jusqu’à la moitié de leur Portée Courte (4d10 + 2 devient 5d10 + 2 par exemple). </p>\n<p>@Compendium[swade-core-rules.swade-rules.Heavy Weapon (HW)]{Arme lourde}</p></div>"
		},
		"120mm Tank Gun (AP Rounds)": {
			"name": "Canon de tank de 120mm (PA Rounds)",
			"description": "<div class='swade-core'><p><strong>Canons et canons antichar:</strong> ces armes peuvent tirer des @Compendium [swade-core-rules.swade-rules.Armor Piercing (AP)]{munitions perforantes} (PA) ou @Compendium[swade-core-rules.swade-rules.High Explosive (HE)]{hautement explosives (HE)}. Les munitions PA font un dé de dégâts en plus jusqu’à la moitié de leur Portée Courte (4d10 + 2 devient 5d10 + 2 par exemple). </p>\n<p>@Compendium[swade-core-rules.swade-rules.Heavy Weapon (HW)]{Arme lourde}</p></div>"
		},
		"125mm Tank Gun (HE Rounds)": {
			"name": "Canon de tank de 125mm (HE Rounds)",
			"description": "<div class='swade-core'><p><strong>Canons et canons antichar:</strong> ces armes peuvent tirer des @Compendium [swade-core-rules.swade-rules.Armor Piercing (AP)]{munitions perforantes} (PA) ou @Compendium[swade-core-rules.swade-rules.High Explosive (HE)]{hautement explosives (HE)}. Les munitions PA font un dé de dégâts en plus jusqu’à la moitié de leur Portée Courte (4d10 + 2 devient 5d10 + 2 par exemple). </p>\n<p>@Compendium[swade-core-rules.swade-rules.Heavy Weapon (HW)]{Arme lourde}</p></div>"
		},
		"125mm Tank Gun (AP Rounds)": {
			"name": "Canon de tank de 125mm (PA Rounds)",
			"description": "<div class='swade-core'><p><strong>Canons et canons antichar:</strong> ces armes peuvent tirer des @Compendium [swade-core-rules.swade-rules.Armor Piercing (AP)]{munitions perforantes} (PA) ou @Compendium[swade-core-rules.swade-rules.High Explosive (HE)]{hautement explosives (HE)}. Les munitions PA font un dé de dégâts en plus jusqu’à la moitié de leur Portée Courte (4d10 + 2 devient 5d10 + 2 par exemple). </p>\n<p>@Compendium[swade-core-rules.swade-rules.Heavy Weapon (HW)]{Arme lourde}</p></div>"
		},
		"75mm Tank Gun (HE Rounds)": {
			"name": "Canon de tank de 75mm (HE Rounds)",
			"description": "<div class='swade-core'><p><strong>Canons et canons antichar:</strong> ces armes peuvent tirer des @Compendium [swade-core-rules.swade-rules.Armor Piercing (AP)]{munitions perforantes} (PA) ou @Compendium[swade-core-rules.swade-rules.High Explosive (HE)]{hautement explosives (HE)}. Les munitions PA font un dé de dégâts en plus jusqu’à la moitié de leur Portée Courte (4d10 + 2 devient 5d10 + 2 par exemple). </p>\n<p>@Compendium[swade-core-rules.swade-rules.Heavy Weapon (HW)]{Arme lourde}</p></div>"
		},
		"75mm Tank Gun (AP Rounds)": {
			"name": "Canon de tank de 75mm (PA Rounds)",
			"description": "<div class='swade-core'><p><strong>Canons et canons antichar:</strong> ces armes peuvent tirer des @Compendium [swade-core-rules.swade-rules.Armor Piercing (AP)]{munitions perforantes} (PA) ou @Compendium[swade-core-rules.swade-rules.High Explosive (HE)]{hautement explosives (HE)}. Les munitions PA font un dé de dégâts en plus jusqu’à la moitié de leur Portée Courte (4d10 + 2 devient 5d10 + 2 par exemple). </p>\n<p>@Compendium[swade-core-rules.swade-rules.Heavy Weapon (HW)]{Arme lourde}</p></div>"
		},
		"76mm Tank Gun (HE Rounds)": {
			"name": "Canon de tank de 76mm (HE Rounds)",
			"description": "<div class='swade-core'><p><strong>Canons et canons antichar:</strong> ces armes peuvent tirer des @Compendium [swade-core-rules.swade-rules.Armor Piercing (AP)]{munitions perforantes} (PA) ou @Compendium[swade-core-rules.swade-rules.High Explosive (HE)]{hautement explosives (HE)}. Les munitions PA font un dé de dégâts en plus jusqu’à la moitié de leur Portée Courte (4d10 + 2 devient 5d10 + 2 par exemple). </p>\n<p>@Compendium[swade-core-rules.swade-rules.Heavy Weapon (HW)]{Arme lourde}</p></div>"
		},
		"76mm Tank Gun (AP Rounds)": {
			"name": "Canon de tank de 76mm (PA Rounds)",
			"description": "<div class='swade-core'><p><strong>Canons et canons antichar:</strong> ces armes peuvent tirer des @Compendium [swade-core-rules.swade-rules.Armor Piercing (AP)]{munitions perforantes} (PA) ou @Compendium[swade-core-rules.swade-rules.High Explosive (HE)]{hautement explosives (HE)}. Les munitions PA font un dé de dégâts en plus jusqu’à la moitié de leur Portée Courte (4d10 + 2 devient 5d10 + 2 par exemple). </p>\n<p>@Compendium[swade-core-rules.swade-rules.Heavy Weapon (HW)]{Arme lourde}</p></div>"
		},
		"88mm Tank Gun (HE Rounds)": {
			"name": "Canon de tank de 88mm (HE Rounds)",
			"description": "<div class='swade-core'><p><strong>Canons et canons antichar:</strong> ces armes peuvent tirer des @Compendium [swade-core-rules.swade-rules.Armor Piercing (AP)]{munitions perforantes} (PA) ou @Compendium[swade-core-rules.swade-rules.High Explosive (HE)]{hautement explosives (HE)}. Les munitions PA font un dé de dégâts en plus jusqu’à la moitié de leur Portée Courte (4d10 + 2 devient 5d10 + 2 par exemple). </p>\n<p>@Compendium[swade-core-rules.swade-rules.Heavy Weapon (HW)]{Arme lourde}</p></div>"
		},
		"88mm Tank Gun (AP Rounds)": {
			"name": "Canon de tank de 88mm (PA Rounds)",
			"description": "<div class='swade-core'><p><strong>Canons et canons antichar:</strong> ces armes peuvent tirer des @Compendium [swade-core-rules.swade-rules.Armor Piercing (AP)]{munitions perforantes} (PA) ou @Compendium[swade-core-rules.swade-rules.High Explosive (HE)]{hautement explosives (HE)}. Les munitions PA font un dé de dégâts en plus jusqu’à la moitié de leur Portée Courte (4d10 + 2 devient 5d10 + 2 par exemple). </p>\n<p>@Compendium[swade-core-rules.swade-rules.Heavy Weapon (HW)]{Arme lourde}</p></div>"
		},
		"Catapult": {
			"name": "Catapulte",
			"description": "<div class=\"swade-core\">\n<p>@Compendium[swade-core-rules.swade-rules.Area Effect Attacks]{Gabarit moyen}, @Compendium[swade-core-rules.swade-rules.Heavy Weapon (HW)]{Arme lourde}, @Compendium[swade-core-rules.swade-rules.Reload]{Rechargement} 5 minutes pour 4 personnes.</p>\n<hr />\n<p>Les catapultes sont des machines simples capables de projeter de lourds rochers sur les fortifications ou les troupes ennemies. Il faut une équipe d’environ huit personnes pour charger un projectile, tendre les cordes puis viser. Le Tir peut être effectué par une seule personne, mais charger le projectile lui-même en nécessite quatre.</p>\n</div>"
		},
		"Claymore Mine": {
			"name": "Claymore",
			"description": "<div class=\"swade-core\">\n<p>les claymores projettent des billes d’acier sur un arc frontal de 60°. Toute personne se trouvant dans la zone jusqu’à 12 cases de distance (24 m) est automatiquement affectée. Lancez un dé pour les cibles jusqu’à 50 cases de distance (100 m). Celles faisant un nombre impair sont également touchées. @Compendium[swade-core-rules.swade-rules.Area Effect Attacks]{Dommages de zone spéciaux}.</p>\n<hr />\n<p>Les mines sont des explosifs dissimulés dans le sol, qui explosent dans le Gabarit indiqué lorsqu’une personne (pour les  mines antipersonnel), ou un véhicule (pour les mines antichar), passe dessus.</p>\n<p><strong>Champ de mines:</strong>  à des fins dramatiques, un personnage qui marche sur une mine a droit à un jet de Perception. En cas de Succès, il réalise le danger avant d’enlever son pied et de faire exploser l’engin. Sauver la victime nécessite un jet de Réparation à -4, mais un Échec déclenche l’explosion immédiatement.</p>\n</div>"
		},
		"Gatling (Laser)": {
			"name": "Gatling (Laser)",
			"description": "<div class=\"swade-core\">\n<p>Les lasers permettent des tirs de rayons de lumière concentrée susceptibles de causer de lourds dégâts à leurs cibles.</p>\n<p><strong>Cautérisation:</strong>  toute personne Incapacitée par un laser bénéficie d’un bonus de +2 à ses jets de @Compendium[swade-core-rules.swade-rules.Traits]{Vigueur} pour arrêter une @Compendium[swade-core-rules.swade-rules.Damage Effects]{Hémorragie}.</p>\n<p><strong>Surcharge:</strong>&nbsp; les lasers présentés ci-dessous peuvent être mis en surcharge. Les dégâts augmentent de 1d6. Mais en cas de 1 sur un dé de Tir, l’arme surchauffe et devient inopérante pendant un round complet.</p>\n<p><strong>Recul:</strong> les pistolets, les  pistolets-mitrailleurs et les fusils lasers n’infligent pas de @Compendium[swade-core-rules.swade-rules.Recoil]{Recul}. En revanche la gatling laser inflige toujours ce malus, ce qui explique qu’elle soit généralement montée sur @Compendium[swade-core-rules.swade-equipment.Bipod/Tripod]{trépied}.</p>\n</div>"
		},
		"Heavy Flamethrower": {
			"name": "Lance-flammes lourd",
			"description": "<div class=\"swade-core\">\n<p> les lance-flammes montés ont des portées supérieures à leurs équivalents portables. Le tireur peut utiliser le @Compendium[swade-core-rules.swade-rules.Area Effect Attacks]{Gabarit de cône} ou tirer sur un @Compendium[swade-core-rules.swade-rules.Area Effect Attacks]{Gabarit moyen} jusqu’à une distance de 18 cases (utilisez le centre du Gabarit pour la portée réelle). Ce tir peut être soumis à une @Compendium[swade-core-rules.swade-rules.Area Effect Attacks]{déviation} (voir Attaque de zone p. 98). </p>\n</div>"
		},
		"Heavy Laser": {
			"name": "Heavy Laser",
			"description": "<div class=\"swade-core\">\n<p>@Compendium[swade-core-rules.swade-rules.Heavy Weapon (HW)]{Arme lourde}</p>\n</div>"
		},
		"Heavy Machine Gun": {
			"name": "Mitrailleuse lourde",
			"description": "<div class=\"swade-core\"><p><strong>Cadence de tir minimum:</strong>&nbsp;les armes de véhicules ayant une @Compendium[swade-core-rules.swade-rules.Rate of Fire]{CdT} de 3 ou plus ont une CdT minimum de 2.Rate of Fire}.</p></div>"
		},
		"Hellfire": {
			"name": "Hellfire",
			"description": "<div class=\"swade-core\">\n<p>@Compendium[swade-core-rules.swade-rules.Heavy Weapon (HW)]{Arme lourde}. Missile guidé par laser, tiré d’un véhicule. @Compendium[swade-core-rules.swade-rules.Area Effect Attacks]{Gabarit moyen}.</p>\n<hr />\n<p>Sauf spécification contraire, un missile doit être verrouillé sur sa cible avant de pouvoir être tiré. Pour cela le tireur doit réussir un jet d’Électronique opposé au jet de Manœuvre de sa cible (Conduite, Pilotage, Navigation, en fonction du cas). En cas de Succès, il est possible de tirer jusqu’à la moitié des missiles du véhicule, et la totalité en cas de Prouesse.</p>\n<p>L’ennemi peut tenter d’éviter les missiles en faisant pour chacun un jet de Manœuvre à -4 (ou -2 s’il peut se servir de l’environnement en tant que Couvert, comme des astéroïdes, des gratte-ciels, des canyons, et même de gros vaisseaux adverses). En cas d’Échec critique, le véhicule subit une Perte de contrôle (voir p. 128).</p>\n<p><strong>Systèmes antimissiles:</strong>les navires de guerre contemporains ou les vaisseaux spatiaux plus importants disposent souvent de systèmes antimissiles destinés à anéantir les missiles en approche. Un opérateur doit être En attente pour pouvoir agir, mais certains systèmes automatisés se déclenchent quoi qu’il arrive. Quoi qu’il en soit, il est possible de faire un jet de Tir r missile à Portée Courte en appliquant les modificateurs appropriés (y compris la vitesse — les missiles se déplace à Mach 1, ce qui implique un malus de -6). À moins que le contraire ne soit spécifié, les missiles ont une Résistance de 8 (2) voir Casser des trucs p. 100).</p>\n</div>"
		},
		"Flamethrower": {
			"name": "Lance-flammes",
			"description": "<div class=\"swade-core\">\n<p>Les lance-flammes contemporains utilisent des liquides ou des gaz inflammables pour mettre le feu à leurs cibles. Ce sont des @Compendium[swade-core-rules.swade-rules.Heavy Weapon (HW)]{Armes lourdes} qui utilisent le @Compendium[swade-core-rules.swade-rules.Area Effect Attacks]{Gabarit de cône} (voir Attaque de zone p. 98) et peuvent être  @Compendium[swade-core-rules.swade-rules.Evasion]{Évitées} (voir p. 105).</p>\n<p>Pour les lance-flammes montés sur véhicule, voir @Compendium[swade-core-rules.swade-equipment.Heavy Flamethrower]{Lance-flammes lourd}.</p>\n</div>"
		},
		"M203 40MM": {
			"name": "M203 40MM",
			"description": "<div class=\"swade-core\">\n<p>@Compendium[swade-core-rules.swade-rules.Snapfire]{Tir statique}. : Tir statique. C’est un lance-grenade monté sur un fusil d’assaut. @Compendium[swade-core-rules.swade-rules.Area Effect Attacks]{Gabarit moyen}.</p>\n<hr />\n<p>Les roquettes et les torpilles sont des armes à tir direct qui explosent en touchant leur cible. @Compendium[swade-core-rules.swade-rules.Heavy Weapon (HW)]{Arme lourde}.</p>\n</div>"
		},
		"M72 Law": {
			"name": "M72 Law",
			"description": "<div class=\"swade-core\">\n<p>@Compendium[swade-core-rules.swade-rules.Snapfire]{Tir statique}. L’arme standard antichar des troupes américaines au Vietnam. @Compendium[swade-core-rules.swade-rules.Area Effect Attacks]{Gabarit moyen}.</p>\n<hr />\n<p>Les roquettes et les torpilles sont des armes à tir direct qui explosent en touchant leur cible. @Compendium[swade-core-rules.swade-rules.Heavy Weapon (HW)]{Arme lourde}.</p>\n</div>"
		},
		"Medium Machine Gun": {
			"name": "Mitrailleuse",
			"description": "<div class=\"swade-core\">\n<p><strong>Cadence de tir minimum</strong> : les armes de véhicules ayant une @Compendium[swade-core-rules.swade-rules.Rate of Fire]{CdT} de 3 ou plus ont une CdT minimum de 2.</p>\n<p>@Compendium[swade-core-rules.swade-rules.Heavy Weapon (HW)]{Armes Lourdes}</p>\n</div>"
		},
		"Anti-Personnel Mine": {
			"name": "Mine antipersonnel",
			"description": "<div class=\"swade-core\">\n<p>@Compendium[swade-core-rules.swade-rules.Heavy Weapon (HW)]{Arme lourde}, @Compendium[swade-core-rules.swade-rules.Area Effect Attacks]{Gabarit petit}.</p>\n<hr />\n<p>Les mines sont des explosifs dissimulés dans le sol, qui explosent dans le Gabarit indiqué lorsqu’une personne (pour les  mines antipersonnel), ou un véhicule (pour les mines antichar), passe dessus.</p>\n<p><strong>Champ de mines:</strong>  à des fins dramatiques, un personnage qui marche sur une mine a droit à un jet de Perception. En cas de Succès, il réalise le danger avant d’enlever son pied et de faire exploser l’engin. Sauver la victime nécessite un jet de Réparation à -4, mais un Échec déclenche l’explosion immédiatement.</p>\n</div>"
		},
		"Anti-Tank Mine": {
			"name": "Mine antichar",
			"description": "<div class=\"swade-core\">\n<p>@Compendium[swade-core-rules.swade-rules.Heavy Weapon (HW)]{Arme lourde}, PA 5 contre la moitié de l’Armure du véhicule (arrondie au supérieur), @Compendium[swade-core-rules.swade-rules.Area Effect Attacks]{Gabarit moyen}.</p>\n<hr />\n<p>Les mines sont des explosifs dissimulés dans le sol, qui explosent dans le Gabarit indiqué lorsqu’une personne (pour les  mines antipersonnel), ou un véhicule (pour les mines antichar), passe dessus.</p>\n<p><strong>Champ de mines:</strong>  à des fins dramatiques, un personnage qui marche sur une mine a droit à un jet de Perception. En cas de Succès, il réalise le danger avant d’enlever son pied et de faire exploser l’engin. Sauver la victime nécessite un jet de Réparation à -4, mais un Échec déclenche l’explosion immédiatement.</p>\n</div>"
		},
		"Mk II (WW2 Pineapple)": {
			"name": "Mk II (2ème Guerre mondiale, modèle ananas )",
			"description": "<div class=\"swade-core\">\n<p>Une grenade s’active lorsqu’elle est dégoupillée, et explose quelques secondes plus tard. On utilise la Compétence @Compendium[swade-core-rules. swade-skills.Athletics]{Athlétisme} pour les lancer (voir Portées ci-dessous). Il n’est pas possible de les lancer à @Compendium[swade-core-rules.swade-rules.Range]{Portée Extrême} (voir p. 66). C’est une Arme lourde qui explose dans le Gabarit indiqué dans la table ci-dessous (voir @Compendium[swade-core-rules.swade-rules.Area Effect Attacks]{Attaque de zone} p. 98). Elle peut être @Compendium[swade-core-rules.swade-rules.Evasion]{Évitée} (voir p. 105). </p>\n<p></p>\n</div>"
		},
		"Mk67 (Modern)": {
			"name": "Mk67 (contemporain)",
			"description": "<div class=\"swade-core\">\n<p>Une grenade s’active lorsqu’elle est dégoupillée, et explose quelques secondes plus tard. On utilise la Compétence @Compendium[swade-core-rules. swade-skills.Athletics]{Athlétisme} pour les lancer (voir Portées ci-dessous). Il n’est pas possible de les lancer à @Compendium[swade-core-rules.swade-rules.Range]{Portée Extrême} (voir p. 66). C’est une Arme lourde qui explose dans le Gabarit indiqué dans la table ci-dessous (voir @Compendium[swade-core-rules.swade-rules.Area Effect Attacks]{Attaque de zone} p. 98). Elle peut être @Compendium[swade-core-rules.swade-rules.Evasion]{Évitée} (voir p. 105). </p>\n<p></p>\n</div>"
		},
		"Panzerschreck": {
			"name": "Panzerschreck",
			"description": "<div class=\"swade-core\">\n<p>@Compendium[swade-core-rules.swade-rules.Snapfire]{Tir statique}.  La « terreur des chars », littéralement, est un lance-roquettes utilisé par les troupes allemandes durant la seconde guerre mondiale. @Compendium[swade-core-rules.swade-rules.Area Effect Attacks]{Gabarit moyen}.</p>\n<hr />\n<p>Les roquettes et les torpilles sont des armes à tir direct qui explosent en touchant leur cible. @Compendium[swade-core-rules.swade-rules.Heavy Weapon (HW)]{Arme lourde}.</p>\n</div>"
		},
		"Potato Masher (WW2)": {
			"name": "Grenade à manche (2ème Guerre mondiale « presse-purée »)",
			"description": "<div class=\"swade-core\">\n<p>Une grenade s’active lorsqu’elle est dégoupillée, et explose quelques secondes plus tard. On utilise la Compétence @Compendium[swade-core-rules. swade-skills.Athletics]{Athlétisme} pour les lancer (voir Portées ci-dessous). Il n’est pas possible de les lancer à @Compendium[swade-core-rules.swade-rules.Range]{Portée Extrême} (voir p. 66). C’est une Arme lourde qui explose dans le Gabarit indiqué dans la table ci-dessous (voir @Compendium[swade-core-rules.swade-rules.Area Effect Attacks]{Attaque de zone} p. 98). Elle peut être @Compendium[swade-core-rules.swade-rules.Evasion]{Évitée} (voir p. 105). </p>\n<p></p>\n</div>"
		},
		"Sidewinder": {
			"name": "Sidewinder",
			"description": "<div class=\"swade-core\">\n<p><span style=\"background-color: #dfe6f5; color: #191813;\">@Compendium[swade-core-rules.swade-rules.Heavy Weapon (HW)]{Arme lourde}</span>. Missile à tête chercheuse à courte portée, tiré d’un appareil aérien.. @Compendium[swade-core-rules.swade-rules.Area Effect Attacks]{Gabarit petit}.</p>\n<hr />\n<p>Sauf spécification contraire, un missile doit être verrouillé sur sa cible avant de pouvoir être tiré. Pour cela le tireur doit réussir un jet d’Électronique opposé au jet de Manœuvre de sa cible (Conduite, Pilotage, Navigation, en fonction du cas). En cas de Succès, il est possible de tirer jusqu’à la moitié des missiles du véhicule, et la totalité en cas de Prouesse.</p>\n<p>L’ennemi peut tenter d’éviter les missiles en faisant pour chacun un jet de Manœuvre à -4 (ou -2 s’il peut se servir de l’environnement en tant que Couvert, comme des astéroïdes, des gratte-ciels, des canyons, et même de gros vaisseaux adverses). En cas d’Échec critique, le véhicule subit une Perte de contrôle (voir p. 128).</p>\n<p><strong>Systèmes antimissiles:</strong>les navires de guerre contemporains ou les vaisseaux spatiaux plus importants disposent souvent de systèmes antimissiles destinés à anéantir les missiles en approche. Un opérateur doit être En attente pour pouvoir agir, mais certains systèmes automatisés se déclenchent quoi qu’il arrive. Quoi qu’il en soit, il est possible de faire un jet de Tir r missile à Portée Courte en appliquant les modificateurs appropriés (y compris la vitesse — les missiles se déplace à Mach 1, ce qui implique un malus de -6). À moins que le contraire ne soit spécifié, les missiles ont une Résistance de 8 (2) voir Casser des trucs p. 100).</p>\n</div>"
		},
		"Smoke Grenade": {
			"name": "Grenade fumigène",
			"description": "<div class=\"swade-core\">\n<p>emplit une zone de fumée sur un @Compendium[swade-core-rules.swade-rules.Area Effect Attacks]{Grand gabarit} qui bloque la Visibilité (malus -4).</p>\n<hr />\n<p>Une grenade s’active lorsqu’elle est dégoupillée, et explose quelques secondes plus tard. On utilise la Compétence @Compendium[swade-core-rules. swade-skills.Athletics]{Athlétisme} pour les lancer (voir Portées ci-dessous). Il n’est pas possible de les lancer à @Compendium[swade-core-rules.swade-rules.Range]{Portée Extrême} (voir p. 66). C’est une Arme lourde qui explose dans le Gabarit indiqué dans la table ci-dessous (voir @Compendium[swade-core-rules.swade-rules.Area Effect Attacks]{Attaque de zone} p. 98). Elle peut être @Compendium[swade-core-rules.swade-rules.Evasion]{Évitée} (voir p. 105). </p>\n<p></p>\n</div>"
		},
		"Sparrow": {
			"name": "Sparrow",
			"description": "<div class=\"swade-core\">\n<p><span style=\"background-color: #dfe6f5; color: #191813;\">@Compendium[swade-core-rules.swade-rules.Heavy Weapon (HW)]{Arme lourde}</span>. Missile à portée moyenne, guidé par radio, tiré d’un appareil aérien.. @Compendium[swade-core-rules.swade-rules.Area Effect Attacks]{Petit gabarit}.</p>\n<hr />\n<p>Sauf spécification contraire, un missile doit être verrouillé sur sa cible avant de pouvoir être tiré. Pour cela le tireur doit réussir un jet d’Électronique opposé au jet de Manœuvre de sa cible (Conduite, Pilotage, Navigation, en fonction du cas). En cas de Succès, il est possible de tirer jusqu’à la moitié des missiles du véhicule, et la totalité en cas de Prouesse.</p>\n<p>L’ennemi peut tenter d’éviter les missiles en faisant pour chacun un jet de Manœuvre à -4 (ou -2 s’il peut se servir de l’environnement en tant que Couvert, comme des astéroïdes, des gratte-ciels, des canyons, et même de gros vaisseaux adverses). En cas d’Échec critique, le véhicule subit une Perte de contrôle (voir p. 128).</p>\n<p><strong>Systèmes antimissiles:</strong>les navires de guerre contemporains ou les vaisseaux spatiaux plus importants disposent souvent de systèmes antimissiles destinés à anéantir les missiles en approche. Un opérateur doit être En attente pour pouvoir agir, mais certains systèmes automatisés se déclenchent quoi qu’il arrive. Quoi qu’il en soit, il est possible de faire un jet de Tir r missile à Portée Courte en appliquant les modificateurs appropriés (y compris la vitesse — les missiles se déplace à Mach 1, ce qui implique un malus de -6). À moins que le contraire ne soit spécifié, les missiles ont une Résistance de 8 (2) voir Casser des trucs p. 100).</p>\n</div>"
		},
		"Stun Grenade": {
			"name": "Grenade étourdissante",
			"description": "<div class=\"swade-core\">\n<p> les cibles doivent réussir un jet de @Compendium[swade-core-rules.swade-rules.Traits]{Vigueur} (à -2 en cas de Prouesse) ou se retrouver @Compendium[swade-core-rules.swade-powers.Stun]{Sonnées} (voir p. 106)</p>\n<hr />\n<p>Une grenade s’active lorsqu’elle est dégoupillée, et explose quelques secondes plus tard. On utilise la Compétence @Compendium[swade-core-rules. swade-skills.Athletics]{Athlétisme} pour les lancer (voir Portées ci-dessous). Il n’est pas possible de les lancer à @Compendium[swade-core-rules.swade-rules.Range]{Portée Extrême} (voir p. 66). C’est une Arme lourde qui explose dans le Gabarit indiqué dans la table ci-dessous (voir @Compendium[swade-core-rules.swade-rules.Area Effect Attacks]{Attaque de zone} p. 98). Elle peut être @Compendium[swade-core-rules.swade-rules.Evasion]{Évitée} (voir p. 105). </p>\n<p></p>\n</div>"
		},
		"Torpedo": {
			"name": "Torpille",
			"description": "<div class=\"swade-core\">\n<p>Les roquettes et les torpilles sont des armes à tir direct qui explosent en touchant leur cible. @Compendium[swade-core-rules.swade-rules.Heavy Weapon (HW)]{Arme lourde}. @Compendium[swade-core-rules.swade-rules.Area Effect Attacks]{Grand gabarit}.</p>\n</div>"
		},
		"TOW Missile Launcher": {
			"name": "Missile TOW",
			"description": "<div class=\"swade-core\">\n<p>@Compendium[swade-core-rules.swade-rules.Heavy Weapon (HW)]{Arme lourde}. Missile filoguidé tiré d’un lanceur portable ou monté sur un véhicule. Ne nécessite pas d’acquisition de la cible, juste un jet de Tir, et ne peut pas être affecté par un brouilleur. @Compendium[swade-core-rules.swade-rules.Area Effect Attacks]{Gabarit moyen}.</p>\n<hr />\n<p>Sauf spécification contraire, un missile doit être verrouillé sur sa cible avant de pouvoir être tiré. Pour cela le tireur doit réussir un jet d’Électronique opposé au jet de Manœuvre de sa cible (Conduite, Pilotage, Navigation, en fonction du cas). En cas de Succès, il est possible de tirer jusqu’à la moitié des missiles du véhicule, et la totalité en cas de Prouesse.</p>\n<p>L’ennemi peut tenter d’éviter les missiles en faisant pour chacun un jet de Manœuvre à -4 (ou -2 s’il peut se servir de l’environnement en tant que Couvert, comme des astéroïdes, des gratte-ciels, des canyons, et même de gros vaisseaux adverses). En cas d’Échec critique, le véhicule subit une Perte de contrôle (voir p. 128).</p>\n<p><strong>Systèmes antimissiles:</strong>les navires de guerre contemporains ou les vaisseaux spatiaux plus importants disposent souvent de systèmes antimissiles destinés à anéantir les missiles en approche. Un opérateur doit être En attente pour pouvoir agir, mais certains systèmes automatisés se déclenchent quoi qu’il arrive. Quoi qu’il en soit, il est possible de faire un jet de Tir r missile à Portée Courte en appliquant les modificateurs appropriés (y compris la vitesse — les missiles se déplace à Mach 1, ce qui implique un malus de -6). À moins que le contraire ne soit spécifié, les missiles ont une Résistance de 8 (2) voir Casser des trucs p. 100).</p>\n</div>"
		},
		"Trebuchet": {
			"name": "Trebuchet",
			"description": "<div class=\"swade-core\">\n<p>@Compendium[swade-core-rules.swade-rules.Area Effect Attacks]{Gabarit moyen}, @Compendium[swade-core-rules.swade-rules.Heavy Weapon (HW)]{Arme lourde}, @Compendium[swade-core-rules.swade-rules.Reload]{Rechargement} 5 minutes pour 4 personnes.</p>\n<hr />\n<p>Les catapultes sont des machines simples capables de projeter de lourds rochers sur les fortifications ou les troupes ennemies. Il faut une équipe d’environ huit personnes pour charger un projectile, tendre les cordes puis viser. Le Tir peut être effectué par une seule personne, mais charger le projectile lui-même en nécessite quatre.</p>\n</div>"
		}
	}
}