{
  "Deadlands Edge": "Deadlands - Atouts",
  "Agent Edge": "Atouts d'Agent",
  "Background Edge": "Atouts de Background",
  "Chi Master Edge": "Atouts de Chi",
  "Huckster Edge": "Atouts de Huckster",
  "Harrowed Edge": "Atouts de Détérré",
  "Mad Scientist Edge": "Atouts de Savant Fou",
  "Blessed Edge": "Atouts d'Elu",
  "Ranger Edge": "Atouts de Ranger",
  "Shaman Edge": "Atouts de Chaman",
  "Combat Edge": "Atouts de Combat",
  "Voodooist Edge": "Atouts de Voodoo",
  "Witch Edge": "Atouts de Sorcière",
  "Legendary Edge": "Atouts Légendaires",
  "Professional Edge": "Atouts Professionels",
  "Social Edge": "Atouts Sociaux",
  "US Marshal Edge": "Atouts d'US Marshal",
  "Weird Edge": "Atouts Etranges",

  "Deadlands Hindrances": "Deadlands - Handicaps",

  "Deadlands Powers": "Deadlands - Pouvoirs"
}  
